
# city_state_business_2.csv
2016-02-16 02:51:11 [scrapy] INFO: Dumping Scrapy stats:
{'downloader/request_bytes': 52825470,
 'downloader/request_count': 149997,
 'downloader/request_method_count/GET': 149997,
 'downloader/response_bytes': 5109116990,
 'downloader/response_count': 149997,
 'downloader/response_status_count/200': 146826,
 'downloader/response_status_count/404': 3027,
 'downloader/response_status_count/503': 144,
 'finish_reason': 'finished',
 'finish_time': datetime.datetime(2016, 2, 16, 7, 51, 11, 425608),
 'httpcache/firsthand': 149587,
 'httpcache/hit': 410,
 'httpcache/miss': 149587,
 'httpcache/store': 149587,
 'item_scraped_count': 146826,
 'log_count/DEBUG': 296872,
 'log_count/INFO': 322,
 'log_count/WARNING': 1,
 'response_received_count': 149901,
 'scheduler/dequeued': 149997,
 'scheduler/dequeued/memory': 149997,
 'scheduler/enqueued': 149997,
 'scheduler/enqueued/memory': 149997,
 'start_time': datetime.datetime(2016, 2, 16, 2, 36, 11, 35870)}
2016-02-16 02:51:11 [scrapy] INFO: Spider closed (finished)
